<?xml version="1.0" encoding="UTF-8"?>
<glyph name="U" format="2">
	<advance width="924"/>
	<unicode hex="0055"/>
	<anchor x="462" y="0" name="bottom"/>
	<anchor x="848" y="10" name="ogonek"/>
	<anchor x="462" y="745" name="top"/>
	<anchor x="924" y="745" name="topright"/>
	<outline>
		<contour>
			<point x="463" y="-10" type="curve" smooth="yes"/>
			<point x="718" y="-10"/>
			<point x="816" y="128"/>
			<point x="796" y="324" type="curve" smooth="yes"/>
			<point x="779" y="484"/>
			<point x="777" y="561"/>
			<point x="817" y="613" type="curve" smooth="yes"/>
			<point x="858" y="667"/>
			<point x="884" y="669"/>
			<point x="884" y="702" type="curve" smooth="yes"/>
			<point x="884" y="732"/>
			<point x="860" y="750"/>
			<point x="823" y="750" type="curve" smooth="yes"/>
			<point x="782" y="750"/>
			<point x="756" y="742"/>
			<point x="713" y="742" type="curve" smooth="yes"/>
			<point x="671" y="742"/>
			<point x="633" y="750"/>
			<point x="603" y="750" type="curve" smooth="yes"/>
			<point x="566" y="750"/>
			<point x="542" y="732"/>
			<point x="542" y="702" type="curve" smooth="yes"/>
			<point x="542" y="669"/>
			<point x="568" y="667"/>
			<point x="609" y="613" type="curve" smooth="yes"/>
			<point x="635" y="579"/>
			<point x="640" y="519"/>
			<point x="640" y="354" type="curve" smooth="yes"/>
			<point x="640" y="176"/>
			<point x="591" y="94"/>
			<point x="463" y="94" type="curve" smooth="yes"/>
			<point x="333" y="94"/>
			<point x="284" y="176"/>
			<point x="284" y="354" type="curve" smooth="yes"/>
			<point x="284" y="515"/>
			<point x="288" y="578"/>
			<point x="315" y="613" type="curve" smooth="yes"/>
			<point x="356" y="667"/>
			<point x="382" y="669"/>
			<point x="382" y="702" type="curve" smooth="yes"/>
			<point x="382" y="732"/>
			<point x="358" y="750"/>
			<point x="321" y="750" type="curve" smooth="yes"/>
			<point x="280" y="750"/>
			<point x="254" y="742"/>
			<point x="211" y="742" type="curve" smooth="yes"/>
			<point x="169" y="742"/>
			<point x="131" y="750"/>
			<point x="101" y="750" type="curve" smooth="yes"/>
			<point x="64" y="750"/>
			<point x="40" y="732"/>
			<point x="40" y="702" type="curve" smooth="yes"/>
			<point x="40" y="669"/>
			<point x="66" y="667"/>
			<point x="107" y="613" type="curve" smooth="yes"/>
			<point x="146" y="562"/>
			<point x="145" y="487"/>
			<point x="128" y="324" type="curve" smooth="yes"/>
			<point x="108" y="128"/>
			<point x="208" y="-10"/>
		</contour>
	</outline>
	<lib>
		<dict>
			<key>public.markColor</key>
			<string>0.67,0.95,0.38,1</string>
		</dict>
	</lib>
</glyph>
